{
    "kungfu-bybit-swap-zecusdt-placera_twmonitor_2022-02-28": {
        "aliases": {
            "kungfu-bybit-swap-zecusdt-placera_twmonitor-search": {},
            "kungfu-bybit-swap-zecusdt-placera_twmonitor-write": {
                "is_write_index": false
            }
        },
        "mappings": {
            "properties": {
                "@metadata": {
                    "properties": {
                        "beat": {
                            "type": "text",
                            "fields": {
                                "keyword": {
                                    "type": "keyword",
                                    "ignore_above": 256
                                }
                            }
                        },
                        "type": {
                            "type": "text",
                            "fields": {
                                "keyword": {
                                    "type": "keyword",
                                    "ignore_above": 256
                                }
                            }
                        },
                        "version": {
                            "type": "text",
                            "fields": {
                                "keyword": {
                                    "type": "keyword",
                                    "ignore_above": 256
                                }
                            }
                        }
                    }
                },
                "@timestamp": {
                    "type": "date"
                },
                "agent": {
                    "properties": {
                        "ephemeral_id": {
                            "type": "text",
                            "fields": {
                                "keyword": {
                                    "type": "keyword",
                                    "ignore_above": 256
                                }
                            }
                        },
                        "hostname": {
                            "type": "text",
                            "fields": {
                                "keyword": {
                                    "type": "keyword",
                                    "ignore_above": 256
                                }
                            }
                        },
                        "id": {
                            "type": "text",
                            "fields": {
                                "keyword": {
                                    "type": "keyword",
                                    "ignore_above": 256
                                }
                            }
                        },
                        "name": {
                            "type": "text",
                            "fields": {
                                "keyword": {
                                    "type": "keyword",
                                    "ignore_above": 256
                                }
                            }
                        },
                        "type": {
                            "type": "text",
                            "fields": {
                                "keyword": {
                                    "type": "keyword",
                                    "ignore_above": 256
                                }
                            }
                        },
                        "version": {
                            "type": "text",
                            "fields": {
                                "keyword": {
                                    "type": "keyword",
                                    "ignore_above": 256
                                }
                            }
                        }
                    }
                },
                "date": {
                    "type": "date"
                },
                "ecs": {
                    "properties": {
                        "version": {
                            "type": "text",
                            "fields": {
                                "keyword": {
                                    "type": "keyword",
                                    "ignore_above": 256
                                }
                            }
                        }
                    }
                },
                "error": {
                    "properties": {
                        "message": {
                            "type": "text",
                            "fields": {
                                "keyword": {
                                    "type": "keyword",
                                    "ignore_above": 256
                                }
                            }
                        },
                        "type": {
                            "type": "text",
                            "fields": {
                                "keyword": {
                                    "type": "keyword",
                                    "ignore_above": 256
                                }
                            }
                        }
                    }
                },
                "fields": {
                    "properties": {
                        "topic": {
                            "type": "text",
                            "fields": {
                                "keyword": {
                                    "type": "keyword",
                                    "ignore_above": 256
                                }
                            }
                        }
                    }
                },
                "file_function": {
                    "type": "text",
                    "fields": {
                        "keyword": {
                            "type": "keyword",
                            "ignore_above": 256
                        }
                    }
                },
                "host": {
                    "properties": {
                        "name": {
                            "type": "text",
                            "fields": {
                                "keyword": {
                                    "type": "keyword",
                                    "ignore_above": 256
                                }
                            }
                        }
                    }
                },
                "input": {
                    "properties": {
                        "type": {
                            "type": "text",
                            "fields": {
                                "keyword": {
                                    "type": "keyword",
                                    "ignore_above": 256
                                }
                            }
                        }
                    }
                },
                "log": {
                    "properties": {
                        "file": {
                            "properties": {
                                "path": {
                                    "type": "text",
                                    "fields": {
                                        "keyword": {
                                            "type": "keyword",
                                            "ignore_above": 256
                                        }
                                    }
                                }
                            }
                        },
                        "offset": {
                            "type": "long"
                        }
                    }
                },
                "log_level": {
                    "type": "text",
                    "fields": {
                        "keyword": {
                            "type": "keyword",
                            "ignore_above": 256
                        }
                    }
                },
                "message": {
                    "type": "text",
                    "fields": {
                        "keyword": {
                            "type": "keyword",
                            "ignore_above": 256
                        }
                    }
                },
                "pid": {
                    "type": "text",
                    "fields": {
                        "keyword": {
                            "type": "keyword",
                            "ignore_above": 256
                        }
                    }
                },
                "utctimestamp": {
                    "type": "date"
                },
                "value": {
                    "properties": {
                        "defender_price": {
                            "properties": {
                                "base_price": {
                                    "type": "float"
                                },
                                "defender_ask": {
                                    "type": "float"
                                },
                                "defender_bid": {
                                    "type": "float"
                                },
                                "index_price": {
                                    "type": "float"
                                },
                                "offset": {
                                    "type": "float"
                                },
                                "placer_ask": {
                                    "type": "float"
                                },
                                "placer_bid": {
                                    "type": "float"
                                },
                                "pos_adj": {
                                    "type": "float"
                                }
                            }
                        },
                        "extern_price": {
                            "properties": {
                                "ask1": {
                                    "type": "float"
                                },
                                "bid1": {
                                    "type": "float"
                                },
                                "exch": {
                                    "type": "text",
                                    "fields": {
                                        "keyword": {
                                            "type": "keyword",
                                            "ignore_above": 256
                                        }
                                    }
                                },
                                "exchange_ts": {
                                    "type": "long"
                                },
                                "flash_out_ts": {
                                    "type": "long"
                                },
                                "flash_recv_ts": {
                                    "type": "long"
                                },
                                "robot": {
                                    "type": "text",
                                    "fields": {
                                        "keyword": {
                                            "type": "keyword",
                                            "ignore_above": 256
                                        }
                                    }
                                },
                                "src": {
                                    "type": "text",
                                    "fields": {
                                        "keyword": {
                                            "type": "keyword",
                                            "ignore_above": 256
                                        }
                                    }
                                },
                                "timestamp": {
                                    "type": "long"
                                },
                                "type": {
                                    "type": "text",
                                    "fields": {
                                        "keyword": {
                                            "type": "keyword",
                                            "ignore_above": 256
                                        }
                                    }
                                }
                            }
                        },
                        "extern_trade": {
                            "properties": {
                                "exch": {
                                    "type": "text",
                                    "fields": {
                                        "keyword": {
                                            "type": "keyword",
                                            "ignore_above": 256
                                        }
                                    }
                                },
                                "exchange_ts": {
                                    "type": "long"
                                },
                                "flash_out_ts": {
                                    "type": "long"
                                },
                                "flash_recv_ts": {
                                    "type": "long"
                                },
                                "id": {
                                    "type": "text",
                                    "fields": {
                                        "keyword": {
                                            "type": "keyword",
                                            "ignore_above": 256
                                        }
                                    }
                                },
                                "price": {
                                    "type": "float"
                                },
                                "robot": {
                                    "type": "text",
                                    "fields": {
                                        "keyword": {
                                            "type": "keyword",
                                            "ignore_above": 256
                                        }
                                    }
                                },
                                "side": {
                                    "type": "text",
                                    "fields": {
                                        "keyword": {
                                            "type": "keyword",
                                            "ignore_above": 256
                                        }
                                    }
                                },
                                "size": {
                                    "type": "float"
                                },
                                "src": {
                                    "type": "text",
                                    "fields": {
                                        "keyword": {
                                            "type": "keyword",
                                            "ignore_above": 256
                                        }
                                    }
                                },
                                "timestamp": {
                                    "type": "long"
                                }
                            }
                        },
                        "ideal_position": {
                            "properties": {
                                "exchange_position_qty": {
                                    "type": "float"
                                },
                                "g2": {
                                    "type": "float"
                                }
                            }
                        },
                        "settle_price": {
                            "properties": {
                                "ask": {
                                    "properties": {
                                        "base": {
                                            "type": "float"
                                        },
                                        "base_exchange_halted": {
                                            "type": "float"
                                        },
                                        "base_exchange_price": {
                                            "type": "float"
                                        },
                                        "base_price": {
                                            "type": "float"
                                        },
                                        "fair_price": {
                                            "type": "float"
                                        },
                                        "fair_price_extern": {
                                            "type": "float"
                                        },
                                        "g1": {
                                            "type": "float"
                                        },
                                        "global_price": {
                                            "type": "float"
                                        },
                                        "placer_price_key": {
                                            "type": "float"
                                        },
                                        "price_after_offset": {
                                            "type": "float"
                                        },
                                        "price_after_trade": {
                                            "type": "float"
                                        },
                                        "robber_adjust": {
                                            "type": "float"
                                        },
                                        "rz_price": {
                                            "type": "float"
                                        },
                                        "spread": {
                                            "type": "float"
                                        }
                                    }
                                },
                                "ask_pos_adj": {
                                    "type": "float"
                                },
                                "avg_gap_of_second_sub_index": {
                                    "type": "float"
                                },
                                "base_price": {
                                    "type": "float"
                                },
                                "bid": {
                                    "properties": {
                                        "base": {
                                            "type": "float"
                                        },
                                        "base_exchange_halted": {
                                            "type": "float"
                                        },
                                        "base_exchange_price": {
                                            "type": "float"
                                        },
                                        "base_price": {
                                            "type": "float"
                                        },
                                        "fair_price": {
                                            "type": "float"
                                        },
                                        "fair_price_extern": {
                                            "type": "float"
                                        },
                                        "g1": {
                                            "type": "float"
                                        },
                                        "global_price": {
                                            "type": "float"
                                        },
                                        "placer_price_key": {
                                            "type": "float"
                                        },
                                        "price_after_offset": {
                                            "type": "float"
                                        },
                                        "price_after_trade": {
                                            "type": "float"
                                        },
                                        "robber_adjust": {
                                            "type": "float"
                                        },
                                        "rz_price": {
                                            "type": "float"
                                        },
                                        "spread": {
                                            "type": "float"
                                        }
                                    }
                                },
                                "bid_pos_adj": {
                                    "type": "float"
                                },
                                "binance_trade_score": {
                                    "type": "float"
                                },
                                "brush_pos": {
                                    "type": "float"
                                },
                                "diff_avg": {
                                    "type": "float"
                                },
                                "index_price": {
                                    "type": "float"
                                },
                                "maker_buy": {
                                    "type": "float"
                                },
                                "maker_sell": {
                                    "type": "float"
                                },
                                "mv_avg": {
                                    "type": "float"
                                },
                                "offset": {
                                    "type": "float"
                                },
                                "pass": {
                                    "type": "float"
                                },
                                "pos_adj": {
                                    "type": "float"
                                },
                                "robber_adj": {
                                    "type": "float"
                                },
                                "robot": {
                                    "type": "text",
                                    "fields": {
                                        "keyword": {
                                            "type": "keyword",
                                            "ignore_above": 256
                                        }
                                    }
                                },
                                "second_exchange_mid": {
                                    "type": "float"
                                },
                                "taker_buy": {
                                    "type": "float"
                                },
                                "taker_sell": {
                                    "type": "float"
                                },
                                "threshold": {
                                    "type": "float"
                                },
                                "timestamp": {
                                    "type": "long"
                                },
                                "total_trade_score": {
                                    "type": "float"
                                },
                                "trade_score": {
                                    "type": "float"
                                },
                                "tw_pos": {
                                    "type": "float"
                                }
                            }
                        }
                    }
                }
            }
        },
        "settings": {
            "index": {
                "refresh_interval": "-1",
                "translog": {
                    "durability": "async"
                },
                "auto_expand_replicas": "false",
                "blocks": {},
                "provided_name": "kungfu-bybit-swap-zecusdt-placera_twmonitor_2022-02-28",
                "creation_date": "1646010424294",
                "unassigned": {
                    "node_left": {
                        "delayed_timeout": "5m"
                    }
                },
                "number_of_replicas": "1",
                "uuid": "G0_PgQp7RQqvabdruLLmqg",
                "version": {
                    "created": "7100299"
                },
                "routing": {
                    "allocation": {
                        "require": {
                            "box_type": "warm"
                        }
                    }
                },
                "number_of_shards": "1",
                "merge": {
                    "policy": {
                        "max_merge_at_once_explicit": "50"
                    }
                }
            }
        }
    }
}