[{
    "InstanceCount": 16,
    "InstanceGroupType": "CORE",
    "Name": "核心节点",
    "InstanceType": "r7g.16xlarge",
    "EbsConfiguration": {
        "EbsBlockDeviceConfigs": [{
            "VolumeSpecification": {
                "VolumeType": "gp3",
                "Iops": 3000,
                "SizeInGB": 1024,
                "Throughput": 125
            },
            "VolumesPerInstance": 4
        }]
    }
}, {
    "InstanceCount": 1,
    "InstanceGroupType": "MASTER",
    "Name": "主节点",
    "InstanceType": "m7g.4xlarge",
    "EbsConfiguration": {
        "EbsBlockDeviceConfigs": [{
            "VolumeSpecification": {
                "VolumeType": "gp3",
                "Iops": 3000,
                "SizeInGB": 500,
                "Throughput": 125
            },
            "VolumesPerInstance": 1
        }]
    }
}]